…
``` r
case_counties
```

    ## # A tibble: 153 × 9
    ##    date       county        state   fips   cases deaths population cases_per100k
    ##    <date>     <chr>         <chr>   <chr>  <dbl>  <dbl>      <dbl>         <dbl>
    ##  1 2022-05-13 Los Angeles   Califo… 06037 2.91e6  32022   10098052        28802.
    ##  2 2022-05-13 New York City New Yo… <NA>  2.42e6  40267         NA           NA 
    ##  3 2022-05-11 Maricopa      Arizona 04013 1.28e6  17326    4253913        30174.
    ##  4 2022-05-06 Miami-Dade    Florida 12086 1.21e6  10917    2715516        44533.
    ##  5 2022-05-13 Cook          Illino… 17031 1.19e6  14936    5223719        22856.
    ##  6 2022-05-13 Harris        Texas   48201 1.03e6  10972    4602523        22439.
    ##  7 2022-05-13 San Diego     Califo… 06073 8.25e5   5271    3302833        24966.
    ##  8 2022-05-13 Riverside     Califo… 06065 6.27e5   6527    2383286        26295.
    ##  9 2022-05-06 Broward       Florida 12011 6.14e5   5841    1909151        32184.
    ## 10 2022-05-13 Orange        Califo… 06059 6.00e5   7023    3164182        18974.
    ## # ℹ 143 more rows
    ## # ℹ 1 more variable: deaths_per100k <dbl>
…
